%YAML 1.1
%TAG !u! tag:unity3d.com,2011:
--- !u!114 &11400000
MonoBehaviour:
  m_ObjectHideFlags: 0
  m_CorrespondingSourceObject: {fileID: 0}
  m_PrefabInstance: {fileID: 0}
  m_PrefabAsset: {fileID: 0}
  m_GameObject: {fileID: 0}
  m_Enabled: 1
  m_EditorHideFlags: 0
  m_Script: {fileID: 11500000, guid: f1b3b4b945939a54ea0b23d3396115fb, type: 3}
  m_Name: spineboy-pro_SkeletonData
  m_EditorClassIdentifier: 
  atlasAssets:
  - {fileID: 11400000, guid: 2bedc3c43dd49f346a4c9e8a87e2fed7, type: 2}
  scale: 0.005
  skeletonJSON: {fileID: 4900000, guid: 8160b67e4c41bd041b948b5e5a86e242, type: 3}
  isUpgradingBlendModeMaterials: 0
  blendModeMaterials:
    requiresBlendModeMaterials: 0
    applyAdditiveMaterial: 0
    additiveMaterials: []
    multiplyMaterials: []
    screenMaterials: []
  skeletonDataModifiers: []
  fromAnimation:
  - idle
  - run
  - walk
  - run
  toAnimation:
  - idle-turn
  - run-to-idle
  - run
  - walk
  duration:
  - 0
  - 0.1
  - 0.3
  - 0.3
  defaultMix: 0.1
  controller: {fileID: 0}
